﻿Name,samAccountName,ParentOU
HR01,HR01,"OU=IDNSYSADMIN2017,DC=IDNCOMPETITION2017,DC=ID"
HR02,HR02,"OU=IDNSYSADMIN2017,DC=IDNCOMPETITION2017,DC=ID"
HR03,HR03,"OU=IDNSYSADMIN2017,DC=IDNCOMPETITION2017,DC=ID"
HR04,HR04,"OU=IDNSYSADMIN2017,DC=IDNCOMPETITION2017,DC=ID"
HR05,HR05,"OU=IDNSYSADMIN2017,DC=IDNCOMPETITION2017,DC=ID"
HR06,HR06,"OU=IDNSYSADMIN2017,DC=IDNCOMPETITION2017,DC=ID"
HR07,HR07,"OU=IDNSYSADMIN2017,DC=IDNCOMPETITION2017,DC=ID"
HR08,HR08,"OU=IDNSYSADMIN2017,DC=IDNCOMPETITION2017,DC=ID"
HR09,HR09,"OU=IDNSYSADMIN2017,DC=IDNCOMPETITION2017,DC=ID"
HR10,HR10,"OU=IDNSYSADMIN2017,DC=IDNCOMPETITION2017,DC=ID"
HR11,HR11,"OU=IDNSYSADMIN2017,DC=IDNCOMPETITION2017,DC=ID"
HR12,HR12,"OU=IDNSYSADMIN2017,DC=IDNCOMPETITION2017,DC=ID"
HR13,HR13,"OU=IDNSYSADMIN2017,DC=IDNCOMPETITION2017,DC=ID"
HR14,HR14,"OU=IDNSYSADMIN2017,DC=IDNCOMPETITION2017,DC=ID"
HR15,HR15,"OU=IDNSYSADMIN2017,DC=IDNCOMPETITION2017,DC=ID"
HR16,HR16,"OU=IDNSYSADMIN2017,DC=IDNCOMPETITION2017,DC=ID"
HR17,HR17,"OU=IDNSYSADMIN2017,DC=IDNCOMPETITION2017,DC=ID"
HR18,HR18,"OU=IDNSYSADMIN2017,DC=IDNCOMPETITION2017,DC=ID"
HR19,HR19,"OU=IDNSYSADMIN2017,DC=IDNCOMPETITION2017,DC=ID"
HR20,HR20,"OU=IDNSYSADMIN2017,DC=IDNCOMPETITION2017,DC=ID"
